NYC Flights Model
…
  seats = 200,
  engine_type = c("Turbo-fan", "Turbo-jet", "Other"),
  lat = c(33.94254,33.63672,42.36435), 
  lon = c(-118.40807,-84.42807,-71.00518),
  alt = c(126,1026,19),
  tzone=c("America/Los_Angeles","America/New_York","America/New_York"),
  dep_date=date("2013-09-16")
)
fake_data %>%
  mutate(mnfr_year = factor(mnfr_year),
         engine_type = factor(engine_type),
         tzone= factor(tzone),
         carrier=factor(carrier))

## # A tibble: 221,616 x 14
##    dep_delay carrier origin  temp precip visib mnfr_year seats engine_type   lat
##        <int> <fct>   <chr>  <dbl>  <dbl> <dbl> <fct>     <dbl> <fct>       <dbl>
##  1         0 9E      EWR       65      0     0 2000        200 Other        33.6
##  2         0 9E      EWR       65      0     0 2000        200 Other        33.6
##  3         0 9E      EWR       65      0     0 2000        200 Other        33.6
##  4         0 9E      EWR       65      0     0 2000        200 Other        33.6
##  5         0 9E      EWR       65      0     0 2000        200 Other        33.6
##  6         0 9E      EWR       65      0     0 2000        200 Other        33.6
##  7         0 9E      EWR       65      0     0 2000        200 Other        33.6
##  8         0 9E      EWR       65      0     0 2000        200 Other        33.6
##  9         0 9E      EWR       65      0     0 2000        200 Other        33.6
## 10         0 9E      EWR       65      0     0 2000        200 Other        33.6
## # ... with 221,606 more rows, and 4 more variables: lon <dbl>, alt <dbl>,
## #   tzone <fct>, dep_date <date>
…
