NYC Flights - Initial Cleaning and Investigation
…
time_hour
0
1
2013-01-01 05:00:00
2013-12-31 23:00:00
2013-07-03 10:00:00
6936

Let’s look at the NA value

flights %>%
  filter ( is.na(arr_delay)   )

## # A tibble: 9,430 x 19
##     year month   day dep_time sched_dep_time dep_delay arr_time sched_arr_time
##    <int> <int> <int>    <int>          <int>     <dbl>    <int>          <int>
##  1  2013     1     1     1525           1530        -5     1934           1805
##  2  2013     1     1     1528           1459        29     2002           1647
##  3  2013     1     1     1740           1745        -5     2158           2020
##  4  2013     1     1     1807           1738        29     2251           2103
##  5  2013     1     1     1939           1840        59       29           2151
##  6  2013     1     1     1952           1930        22     2358           2207
##  7  2013     1     1     2016           1930        46       NA           2220
##  8  2013     1     1       NA           1630        NA       NA           1815
##  9  2013     1     1       NA           1935        NA       NA           2240
## 10  2013     1     1       NA           1500        NA       NA           1825
## # ... with 9,420 more rows, and 11 more variables: arr_delay <dbl>,
## #   carrier <chr>, flight <int>, tailnum <chr>, origin <chr>, dest <chr>,
## #   air_time <dbl>, distance <dbl>, hour <dbl>, minute <dbl>, time_hour <dttm>
…
planes %>%
  count(type)

## # A tibble: 3 x 2
##   type                         n
##   <chr>                    <int>
## 1 Fixed wing multi engine   3292
## 2 Fixed wing single engine    25
## 3 Rotorcraft                   5

planes %>%
  count(model)%>%
  arrange(desc(n))

## # A tibble: 127 x 2
##    model           n
##    <chr>       <int>
##  1 737-7H4       361
##  2 A320-232      256
##  3 CL-600-2B19   171
##  4 CL-600-2D24   123
##  5 737-824       122
##  6 MD-88         117
##  7 EMB-145LR     114
##  8 737-3H4       105
##  9 EMB-145XR     104
## 10 757-232        94
## # ... with 117 more rows
…
time_hour
0
1
2013-01-01 01:00:00
2013-12-30 18:00:00
2013-07-01 14:00:00
8714

airports

## # A tibble: 1,458 x 8
##    faa   name                       lat    lon   alt    tz dst   tzone          
##    <chr> <chr>                    <dbl>  <dbl> <dbl> <dbl> <chr> <chr>          
##  1 04G   Lansdowne Airport         41.1  -80.6  1044    -5 A     America/New_Yo~
##  2 06A   Moton Field Municipal A~  32.5  -85.7   264    -6 A     America/Chicago
##  3 06C   Schaumburg Regional       42.0  -88.1   801    -6 A     America/Chicago
##  4 06N   Randall Airport           41.4  -74.4   523    -5 A     America/New_Yo~
##  5 09J   Jekyll Island Airport     31.1  -81.4    11    -5 A     America/New_Yo~
##  6 0A9   Elizabethton Municipal ~  36.4  -82.2  1593    -5 A     America/New_Yo~
##  7 0G6   Williams County Airport   41.5  -84.5   730    -5 A     America/New_Yo~
##  8 0G7   Finger Lakes Regional A~  42.9  -76.8   492    -5 A     America/New_Yo~
##  9 0P2   Shoestring Aviation Air~  39.8  -76.6  1000    -5 U     America/New_Yo~
## 10 0S9   Jefferson County Intl     48.1 -123.    108    -8 A     America/Los_An~
## # ... with 1,448 more rows

flights_delay %>%
  count(dest,sort = TRUE)

## # A tibble: 104 x 2
##    dest      n
##    <fct> <int>
##  1 ATL   16837
##  2 ORD   16566
##  3 LAX   16026
##  4 BOS   15022
##  5 MCO   13967
##  6 CLT   13674
##  7 SFO   13173
##  8 FLL   11897
##  9 MIA   11593
## 10 DCA    9111
## # ... with 94 more rows
…
## # A tibble: 2 x 3
##   is_late      n  prop
##   <fct>    <int> <dbl>
## 1 0       233629 0.841
## 2 1        44061 0.159

We see that about 15.9% of all flights are classes as being late.

We will drop the manufacturer and name

flights_joined %>%
  count(manufacturer,sort = TRUE)

## # A tibble: 35 x 2
##    manufacturer                      n
##    <fct>                         <int>
##  1 BOEING                        81896
##  2 EMBRAER                       63210
##  3 AIRBUS                        46624
##  4 AIRBUS INDUSTRIE              40477
##  5 BOMBARDIER INC                27319
##  6 MCDONNELL DOUGLAS AIRCRAFT CO  8787
##  7 MCDONNELL DOUGLAS              3831
##  8 CANADAIR                       1489
##  9 MCDONNELL DOUGLAS CORPORATION  1242
## 10 CESSNA                          619
## # ... with 25 more rows
…
